{
	"id": "pf1-rest-end",
	"title": "Rest's End for Pathfinder 1e",
	"description": "Simple post-rest handling.",
	"version": "0.2.0",
	"authors": [
		{
			"name": "MKAh",
			"url": "https://gitlab.com/mkahvi",
			"discord": "manaflower",
			"ko-fi": "mkahvi"
		}
	],
	"esmodules": ["rest-end.mjs"],
	"styles": ["rest-end.css"],
	"languages": [
		{
			"lang": "en",
			"path": "lang/en.json"
		}
	],
	"compatibility": {
		"minimum": 10,
		"verified": 11
	},
	"relationships": { "systems": [{ "id": "pf1" }] },
	"license": "https://gitlab.com/mkahvi/fvtt-micro-modules/-/raw/master/pf1-rest-end/LICENSE",
	"readme": "https://gitlab.com/mkahvi/fvtt-micro-modules/-/raw/master/pf1-rest-end/README.md",
	"changelog": "https://gitlab.com/mkahvi/fvtt-micro-modules/-/raw/master/pf1-rest-end/CHANGELOG.md",
	"manifest": "https://gitlab.com/mkahvi/fvtt-micro-modules/-/raw/master/pf1-rest-end/module.json",
	"download": "https://gitlab.com/mkahvi/fvtt-micro-modules/-/raw/master/pf1-rest-end/pf1-rest-end.zip",
	"url": "https://gitlab.com/mkahvi/fvtt-micro-modules/-/tree/master/pf1-rest-end",
	"bugs": "https://gitlab.com/mkahvi/fvtt-micro-modules/-/issues"
}
