{
	"id": "pf1-spontaneous-casting",
	"title": "Spontaneous Casting 🪄 for Pathfinder 1e",
	"description": "Allows to spontaneously cast unprepared spell at cost of prepared one, such as cleric/druid spontaneous casting, or casting lower level spell with higher level slot with sorcerer.",

	"version": "1.5.0.4",
	"authors": [
		{
			"name": "MKAh",
			"url": "https://gitlab.com/mkahvi",
			"discord": "manaflower",
			"ko-fi": "mkahvi"
		}
	],

	"esmodules": ["spontaneous-casting.min.mjs"],
	"styles": ["spontaneous-casting.css"],

	"languages": [{ "lang": "en", "path": "lang/en.json" }],

	"compatibility": {
		"minimum": 11,
		"verified": 12
	},
	"relationships": {
		"systems": [{ "id": "pf1", "compatibility": { "minimum": "10.0" } }]
	},

	"license": "https://gitlab.com/mkahvi/fvtt-micro-modules/-/raw/master/pf1-spontaneous-casting/LICENSE",
	"readme": "https://gitlab.com/mkahvi/fvtt-micro-modules/-/raw/master/pf1-spontaneous-casting/README.md",
	"changelog": "https://gitlab.com/mkahvi/fvtt-micro-modules/-/raw/master/pf1-spontaneous-casting/CHANGELOG.md",

	"manifest": "https://gitlab.com/mkahvi/fvtt-micro-modules/-/raw/master/pf1-spontaneous-casting/module.json",
	"download": "https://gitlab.com/mkahvi/fvtt-micro-modules/-/raw/master/pf1-spontaneous-casting/pf1-spontaneous-casting.zip",
	"url": "https://gitlab.com/mkahvi/fvtt-micro-modules/-/tree/master/pf1-spontaneous-casting",
	"bugs": "https://gitlab.com/mkahvi/fvtt-micro-modules/-/issues"
}
