{
	"id": "pf1-gentle-negging",
	"title": "Gentle Negging for Pathfinder 1e",
	"description": "Gentler negative levels. Affects only multiclassed characters, spreading effects of negative levels instead of hitting everything.",

	"version": "0.1.0",
	"authors": [
		{
			"name": "MKAh",
			"url": "https://gitlab.com/mkahvi",
			"discord": "manaflower",
			"ko-fi": "mkahvi"
		}
	],

	"esmodules": ["gentle-negging.mjs"],

	"compatibility": {
		"minimum": 11,
		"verified": 11
	},
	"relationships": {
		"systems": [{ "id": "pf1", "compatibility": {"minimum": "10.0"} }]
	},

	"license": "https://gitlab.com/mkahvi/fvtt-micro-modules/-/raw/master/pf1-gentle-negging/LICENSE",
	"readme": "https://gitlab.com/mkahvi/fvtt-micro-modules/-/raw/master/pf1-gentle-negging/README.md",

	"manifest": "https://gitlab.com/mkahvi/fvtt-micro-modules/-/raw/master/pf1-gentle-negging/module.json",
	"download": "https://gitlab.com/mkahvi/fvtt-micro-modules/-/raw/master/pf1-gentle-negging/pf1-gentle-negging.zip",
	"url": "https://gitlab.com/mkahvi/fvtt-micro-modules/-/tree/master/pf1-gentle-negging",
	"bugs": "https://gitlab.com/mkahvi/fvtt-micro-modules/-/issues"
}
