{
	"id": "inherit-folder-permissions",
	"name": "inherit-folder-permissions",
	"title": "Inherit Folder Permissions/Ownership 🗀",
	"description": "Allows folders to automatically grant permissions/ownership to documents under them.",

	"version": "0.2.0.1",
	"authors": [
		{
			"name": "MKAh",
			"url": "https://gitlab.com/mkahvi",
			"discord": "Mana#4176",
			"ko-fi": "mkahvi"
		}
	],

	"esmodules": ["inherit-folder-permissions.mjs"],
	"styles": ["inherit-folder-permissions.css"],

	"languages": [{ "lang": "en", "path": "lang/en.json" }],

	"minimumCoreVersion": 10,
	"compatibility": {
		"minimum": 10,
		"verified": 10
	},

	"readme": "https://gitlab.com/mkahvi/fvtt-micro-modules/-/raw/master/inherit-folder-permissions/README.md",
	"license": "https://gitlab.com/mkahvi/fvtt-micro-modules/-/raw/master/inherit-folder-permissions/LICENSE",

	"manifest": "https://gitlab.com/mkahvi/fvtt-micro-modules/-/raw/master/inherit-folder-permissions/module.json",
	"download": "https://gitlab.com/mkahvi/fvtt-micro-modules/-/raw/master/inherit-folder-permissions/inherit-folder-permissions.zip",
	"url": "https://gitlab.com/mkahvi/fvtt-micro-modules/-/tree/master/inherit-folder-permissions",
	"bugs": "https://gitlab.com/mkahvi/fvtt-micro-modules/-/issues"
}
