{
	"id": "initial-journal-page",
	"title": "Initial Journal Page 📓",
	"description": "When creating journals, create initial text page automatically.",

	"version": "0.1.0",
	"authors": [
		{
			"name": "MKAh",
			"url": "https://gitlab.com/mkahvi",
			"discord": "Mana#4176",
			"ko-fi": "mkahvi"
		}
	],

	"esmodules": ["initial-journal-page.mjs"],

	"compatibility": {
		"minimum": 10,
		"verified": 10
	},

	"license": "https://gitlab.com/mkahvi/fvtt-micro-modules/-/raw/master/initial-journal-page/LICENSE",
	"readme": "https://gitlab.com/mkahvi/fvtt-micro-modules/-/raw/master/initial-journal-page/README.md",
	"changelog": "https://gitlab.com/mkahvi/fvtt-micro-modules/-/raw/master/initial-journal-page/CHANGELOG.md",

	"manifest": "https://gitlab.com/mkahvi/fvtt-micro-modules/-/raw/master/initial-journal-page/module.json",
	"download": "https://gitlab.com/mkahvi/fvtt-micro-modules/-/raw/master/initial-journal-page/initial-journal-page.zip",
	"url": "https://gitlab.com/mkahvi/fvtt-micro-modules/-/tree/master/initial-journal-page",
	"bugs": "https://gitlab.com/mkahvi/fvtt-micro-modules/-/issues"
}
