{
	"id": "pf1-target-saves",
	"title": "Target Saves for Pathfinder 1",
	"description": "Allows quick mass saving throws for targeted.",

	"version": "1.2.0.1",
	"authors": [
		{
			"name": "MKAh",
			"url": "https://gitlab.com/mkahvi",
			"discord": "manaflower",
			"ko-fi": "mkahvi"
		}
	],

	"esmodules": ["target-saves.mjs"],
	"styles": ["target-saves.css"],
	"languages": [{ "lang": "en", "path": "lang/en.json" }],

	"compatibility": {
		"minimum": 12,
		"verified": 12
	},
	"relationships": {
		"systems": [{ "id": "pf1", "compatibility": { "minimum": "11.2" } }]
	},

	"socket": true,

	"license": "https://gitlab.com/mkahvi/fvtt-micro-modules/-/raw/master/pf1-target-saves/LICENSE",
	"readme": "https://gitlab.com/mkahvi/fvtt-micro-modules/-/raw/master/pf1-target-saves/README.md",
	"changelog": "https://gitlab.com/mkahvi/fvtt-micro-modules/-/raw/master/pf1-target-saves/CHANGELOG.md",

	"manifest": "https://gitlab.com/mkahvi/fvtt-micro-modules/-/raw/master/pf1-target-saves/module.json",
	"download": "https://gitlab.com/mkahvi/fvtt-micro-modules/-/raw/master/pf1-target-saves/pf1-target-saves.zip",
	"url": "https://gitlab.com/mkahvi/fvtt-micro-modules/-/tree/master/pf1-target-saves",
	"bugs": "https://gitlab.com/mkahvi/fvtt-micro-modules/-/issues"
}
