{
	"name": "pf1-remove-damage-buttons",
	"title": "Remove Damage Buttons (for PF1)",
	"description": "Removes damage buttons from chat cards. Meant as temporary workaround for dealing with Wounds & Vigor support being broken.",

	"manifestPlusVersion": "1.1.0",

	"version": "0.1.0",
	"authors": [
		{
			"name": "MKAh",
			"url": "https://gitlab.com/mkahvi",
			"discord": "Mana#4176",
			"ko-fi": "mkahvi"
		}
	],

	"esmodules": ["remove-damage-buttons.mjs"],

	"system": ["pf1"],
	"minimumSystemVersion": "0.79.0",

	"minimumCoreVersion": "0.8.8",
	"compatibleCoreVersion": 9,

	"license": "https://gitlab.com/mkahvi/fvtt-micro-modules/-/raw/master/pf1-remove-damage-buttons/LICENSE",
	"readme": "https://gitlab.com/mkahvi/fvtt-micro-modules/-/raw/master/pf1-remove-damage-buttons/README.md",

	"manifest": "https://gitlab.com/mkahvi/fvtt-micro-modules/-/raw/master/pf1-remove-damage-buttons/module.json",
	"download": "https://gitlab.com/mkahvi/fvtt-micro-modules/-/raw/master/pf1-remove-damage-buttons/pf1-remove-damage-buttons.zip",
	"url": "https://gitlab.com/mkahvi/fvtt-micro-modules/-/tree/master/pf1-remove-damage-buttons",
	"bugs": "https://gitlab.com/mkahvi/fvtt-micro-modules/-/issues"
}
