{
	"id": "limit-initial-token-control",
	"name": "limit-initial-token-control",
	"title": "Limit Initial Token Control",
	"description": "Limits initial token control if you have more than 1.",

	"version": "0.1.1",
	"authors": [
		{
			"name": "MKAh",
			"url": "https://gitlab.com/mkahvi",
			"discord": "Mana#4176",
			"ko-fi": "mkahvi"
		}
	],

	"esmodules": ["limit-initial-control.mjs"],

	"minimumCoreVersion": 9,
	"compatibility": {
		"minimum": 9,
		"verified": 10
	},

	"dependencies": [{ "name": "lib-wrapper" }],
	"relationships": {
		"requires": [{ "id": "lib-wrapper", "type": "module" }]
	},

	"license": "https://gitlab.com/mkahvi/fvtt-micro-modules/-/raw/master/limit-initial-token-control/LICENSE",
	"readme": "https://gitlab.com/mkahvi/fvtt-micro-modules/-/raw/master/limit-initial-token-control/README.md",

	"manifest": "https://gitlab.com/mkahvi/fvtt-micro-modules/-/raw/master/limit-initial-token-control/module.json",
	"download": "https://gitlab.com/mkahvi/fvtt-micro-modules/-/raw/master/limit-initial-token-control/limit-initial-token-control.zip",
	"url": "https://gitlab.com/mkahvi/fvtt-micro-modules/-/tree/master/limit-initial-token-control",
	"bugs": "https://gitlab.com/mkahvi/fvtt-micro-modules/-/issues"
}
