{
	"id": "darkvision-alt",
	"title": "Alternate Darkvision",
	"description": "Alters darkvision to no longer turn dim light into bright light.<br>This makes it rules correct for Pathfinder 1e for example.",

	"version": "0.1.0",
	"authors": [
		{
			"name": "MKAh",
			"url": "https://gitlab.com/mkahvi",
			"discord": "Mana#4176",
			"ko-fi": "mkahvi"
		}
	],

	"esmodules": ["darkvision.mjs"],

	"compatibility": {
		"minimum": 10,
		"verified": 10,
		"maximum": 10
	},

	"license": "https://gitlab.com/mkahvi/fvtt-micro-modules/-/raw/master/darkvision-alt/LICENSE",
	"readme": "https://gitlab.com/mkahvi/fvtt-micro-modules/-/raw/master/darkvision-alt/README.md",

	"manifest": "https://gitlab.com/mkahvi/fvtt-micro-modules/-/raw/master/darkvision-alt/module.json",
	"download": "https://gitlab.com/mkahvi/fvtt-micro-modules/-/raw/master/darkvision-alt/darkvision-alt.zip",
	"url": "https://gitlab.com/mkahvi/fvtt-micro-modules/-/tree/master/darkvision-alt",
	"bugs": "https://gitlab.com/mkahvi/fvtt-micro-modules/-/issues"
}
