{
	"id": "app-menu",
	"title": "Application Menu",
	"description": "Simple applicaton menu for finding your lost apps.",

	"version": "0.2.0",
	"authors": [
		{
			"name": "MKAh",
			"url": "https://gitlab.com/mkahvi",
			"discord": "manaflower",
			"ko-fi": "mkahvi"
		}
	],

	"esmodules": ["app-menu.mjs"],
	"styles": ["app-menu.css"],

	"languages": [{ "lang": "en", "path": "lang/en.json" }],

	"compatibility": {
		"minimum": 10,
		"verified": 11
	},

	"manifest": "https://gitlab.com/mkahvi/fvtt-micro-modules/-/raw/master/app-menu/module.json",
	"download": "https://gitlab.com/mkahvi/fvtt-micro-modules/-/raw/master/app-menu/app-menu.zip",
	"url": "https://gitlab.com/mkahvi/fvtt-micro-modules/-/tree/master/app-menu",
	"bugs": "https://gitlab.com/mkahvi/fvtt-micro-modules/-/issues"
}
