{
	"id": "mkah-pf1-feature-sources",
	"name": "mkah-pf1-feature-sources",
	"title": "Feature Sources for Pathfinder 1e",
	"description": "Adds small input box to allow recording source of a feat.",

	"version": "0.3.1",
	"authors": [
		{
			"name": "MKAh",
			"url": "https://gitlab.com/mkahvi",
			"discord": "Mana#4176",
			"ko-fi": "mkahvi"
		}
	],

	"esmodules": ["feature-sources.mjs"],
	"styles": ["feature-sources.css"],

	"languages": [{ "lang": "en", "path": "lang/en.json" }],

	"system": ["pf1"],
	"minimumSystemVersion": "0.76.13",
	"relationships": {
		"systems": [{ "id": "pf1", "compatibility": { "minimum": "0.76.13" } }]
	},

	"minimumCoreVersion": "0.7.9",
	"compatibleCoreVersion": "10",
	"compatibility": {
		"minimum": "0.7.9",
		"verified": 10
	},

	"license": "https://gitlab.com/mkahvi/fvtt-micro-modules/-/raw/master/pf1-feature-sources/LICENSE",
	"readme": "https://gitlab.com/mkahvi/fvtt-micro-modules/-/raw/master/pf1-feature-sources/README.md",

	"manifest": "https://gitlab.com/mkahvi/fvtt-micro-modules/-/raw/master/pf1-feature-sources/module.json",
	"download": "https://gitlab.com/mkahvi/fvtt-micro-modules/-/raw/master/pf1-feature-sources/pf1-feature-sources.zip",
	"url": "https://gitlab.com/mkahvi/fvtt-micro-modules/-/tree/master/pf1-feature-sources",
	"bugs": "https://gitlab.com/mkahvi/fvtt-micro-modules/-/issues"
}
