{
	"id": "pack-sourcing",
	"title": "Pack Sourcing",
	"description": "Display source pack and allow optionally deleting the source link.",

	"version": "0.1.1.1",
	"authors": [
		{
			"name": "MKAh",
			"url": "https://gitlab.com/mkahvi",
			"discord": "manaflower",
			"ko-fi": "mkahvi"
		}
	],

	"esmodules": ["pack-sourcing.mjs"],
	"styles": ["pack-sourcing.css"],

	"compatibility": {
		"minimum": 10,
		"verified": 12
	},

	"license": "https://gitlab.com/mkahvi/fvtt-micro-modules/-/raw/master/pack-sourcing/LICENSE",
	"readme": "https://gitlab.com/mkahvi/fvtt-micro-modules/-/raw/master/pack-sourcing/README.md",

	"manifest": "https://gitlab.com/mkahvi/fvtt-micro-modules/-/raw/master/pack-sourcing/module.json",
	"download": "https://gitlab.com/mkahvi/fvtt-micro-modules/-/raw/master/pack-sourcing/pack-sourcing.zip",
	"url": "https://gitlab.com/mkahvi/fvtt-micro-modules/-/tree/master/pack-sourcing",
	"bugs": "https://gitlab.com/mkahvi/fvtt-micro-modules/-/issues"
}
