{
	"id": "sf-spellbook-details",
	"name": "sf-spellbook-details",
	"title": "Extra Spellbook Details for Starfinder",
	"description": "Display extra spellbook details in spells tab.",

	"version": "0.2.0.1",
	"authors": [
		{
			"name": "MKAh",
			"url": "https://gitlab.com/mkahvi",
			"discord": "Mana#4176",
			"ko-fi": "mkahvi"
		}
	],

	"esmodules": ["spell-details.mjs"],
	"styles": ["spell-details.css"],

	"system": ["sfrpg"],
	"minimumSystemVersion": "0.19.0",

	"minimumCoreVersion": 9,
	"compatibility": {
		"minimum": 9,
		"verified": 10
	},

	"relationships": {
		"systems": [{ "id": "sfrpg" }]
	},

	"license": "https://gitlab.com/mkahvi/fvtt-micro-modules/-/raw/master/sf-spellbook-details/LICENSE",
	"readme": "https://gitlab.com/mkahvi/fvtt-micro-modules/-/raw/master/sf-spellbook-details/README.md",

	"manifest": "https://gitlab.com/mkahvi/fvtt-micro-modules/-/raw/master/sf-spellbook-details/module.json",
	"download": "https://gitlab.com/mkahvi/fvtt-micro-modules/-/raw/master/sf-spellbook-details/sf-spellbook-details.zip",
	"url": "https://gitlab.com/mkahvi/fvtt-micro-modules/-/tree/master/sf-spellbook-details",
	"bugs": "https://gitlab.com/mkahvi/fvtt-micro-modules/-/issues"
}
