{
	"name": "mkah-pf1-health-randomizer",
	"title": "Mana's Health Randomizer",
	"description": "Randomizes unlinked token health.<br>For best results set health mode to manual and ratio to 1.",

	"version": "0.1.0",
	"authors": [
		{
			"name": "MKAh",
			"url": "https://gitlab.com/mkahvi",
			"discord": "Mana#4176",
			"ko-fi": "mkahvi"
		}
	],

	"esmodules": ["rng-health.mjs"],

	"system": ["pf1"],

	"minimumCoreVersion": "0.8.8",
	"compatibleCoreVersion": "0.8.9",

	"license": "https://gitlab.com/mkahvi/fvtt-micro-modules/-/raw/master/pf1-health-randomizer/LICENSE",
	"readme": "https://gitlab.com/mkahvi/fvtt-micro-modules/-/raw/master/pf1-health-randomizer/README.md",

	"manifest": "https://gitlab.com/mkahvi/fvtt-micro-modules/-/raw/master/pf1-health-randomizer/module.json",
	"download": "https://gitlab.com/mkahvi/fvtt-micro-modules/-/raw/master/pf1-health-randomizer/pf1-health-randomizer.zip",
	"url": "https://gitlab.com/mkahvi/fvtt-micro-modules/-/tree/master/pf1-health-randomizer",
	"bugs": "https://gitlab.com/mkahvi/fvtt-micro-modules/-/issues"
}
