{
	"id": "pf1-item-nesting",
	"title": "Item Nesting 🪺 (Proof of Concept) for Pathfinder 1e",
	"description": "Adds ability to nest items.",

	"version": "1.1.0.1",
	"authors": [
		{
			"name": "MKAh",
			"url": "https://gitlab.com/mkahvi",
			"discord": "manaflower",
			"ko-fi": "mkahvi"
		}
	],

	"esmodules": ["item-nesting.mjs"],
	"styles": ["item-nesting.css"],

	"languages": [{ "lang": "en", "path": "lang/en.json" }],

	"compatibility": {
		"minimum": 10,
		"verified": 11
	},
	"relationships": {
		"systems": [{ "id": "pf1", "compatibility": {"minimum": "9.4"} }]
	},

	"license": "https://gitlab.com/mkahvi/fvtt-micro-modules/-/raw/master/pf1-item-nesting/LICENSE",
	"readme": "https://gitlab.com/mkahvi/fvtt-micro-modules/-/raw/master/pf1-item-nesting/README.md",

	"manifest": "https://gitlab.com/mkahvi/fvtt-micro-modules/-/raw/master/pf1-item-nesting/module.json",
	"download": "https://gitlab.com/mkahvi/fvtt-micro-modules/-/raw/master/pf1-item-nesting/pf1-item-nesting.zip",
	"url": "https://gitlab.com/mkahvi/fvtt-micro-modules/-/tree/master/pf1-item-nesting",
	"bugs": "https://gitlab.com/mkahvi/fvtt-micro-modules/-/issues"
}
