{
	"id": "pf1-caster-ability-filter",
	"title": "Caster Ability Filter to Compendium Browser for Pathfinder 1e",
	"description": "Adds caster ability score filter to class compendium browser.",

	"version": "0.1.0.1",
	"authors": [
		{
			"name": "MKAh",
			"url": "https://gitlab.com/mkahvi",
			"discord": "manaflower",
			"ko-fi": "mkahvi"
		}
	],

	"esmodules": ["caster-ability-filter.mjs"],

	"languages": [{ "lang": "en", "path": "lang/en.json" }],

	"compatibility": {
		"minimum": 10,
		"verified": 11
	},
	"relationships": {
		"systems": [{ "id": "pf1", "compatibility": { "minimum": "0.83.0" } }]
	},

	"license": "https://gitlab.com/mkahvi/fvtt-micro-modules/-/raw/master/pf1-caster-ability-filter/LICENSE",
	"readme": "https://gitlab.com/mkahvi/fvtt-micro-modules/-/raw/master/pf1-caster-ability-filter/README.md",

	"manifest": "https://gitlab.com/mkahvi/fvtt-micro-modules/-/raw/master/pf1-caster-ability-filter/module.json",
	"download": "https://gitlab.com/mkahvi/fvtt-micro-modules/-/raw/master/pf1-caster-ability-filter/pf1-caster-ability-filter.zip",
	"url": "https://gitlab.com/mkahvi/fvtt-micro-modules/-/tree/master/pf1-caster-ability-filter",
	"bugs": "https://gitlab.com/mkahvi/fvtt-micro-modules/-/issues"
}
