{
	"id": "scene-memory",
	"title": "Scene Memory",
	"description": "Remember last viewed scene.",

	"version": "0.1.0",
	"authors": [
		{
			"name": "MKAh",
			"url": "https://gitlab.com/mkahvi",
			"discord": "manaflower",
			"ko-fi": "mkahvi"
		}
	],

	"esmodules": ["scene-memory.mjs"],
	"styles": ["scene-memory.css"],

	"compatibility": {
		"minimum": 11,
		"verified": 11
	},

	"relationships": {
		"requires": [{ "id": "lib-wrapper", "type": "module" }]
	},

	"flags": {
		"hotReload": {
			"extensions": ["hbs", "css"]
		}
	},

	"license": "https://gitlab.com/mkahvi/fvtt-micro-modules/-/raw/master/scene-memory/LICENSE",
	"readme": "https://gitlab.com/mkahvi/fvtt-micro-modules/-/raw/master/scene-memory/README.md",

	"manifest": "https://gitlab.com/mkahvi/fvtt-micro-modules/-/raw/master/scene-memory/module.json",
	"download": "https://gitlab.com/mkahvi/fvtt-micro-modules/-/raw/master/scene-memory/scene-memory.zip",
	"url": "https://gitlab.com/mkahvi/fvtt-micro-modules/-/tree/master/scene-memory",
	"bugs": "https://gitlab.com/mkahvi/fvtt-micro-modules/-/issues"
}
