{
	"id": "folder-default-type",
	"title": "Folder Default Type",
	"description": "Allow defining default document type for new documents in a folder.",

	"version": "0.1.0.1",

	"authors": [
		{
			"name": "MKAh",
			"url": "https://gitlab.com/mkahvi",
			"discord": "Mana#4176",
			"ko-fi": "mkahvi"
		}
	],

	"esmodules": ["folder-default-type.mjs"],

	"languages": [{ "lang": "en", "path": "lang/en.json" }],

	"compatibility": { "minimum": 10, "verified": 10 },

	"license": "https://gitlab.com/mkahvi/fvtt-micro-modules/-/raw/master/folder-default-type/LICENSE",
	"readme": "https://gitlab.com/mkahvi/fvtt-micro-modules/-/raw/master/folder-default-type/README.md",

	"manifest": "https://gitlab.com/mkahvi/fvtt-micro-modules/-/raw/master/folder-default-type/module.json",
	"download": "https://gitlab.com/mkahvi/fvtt-micro-modules/-/raw/master/folder-default-type/folder-default-type.zip",
	"url": "https://gitlab.com/mkahvi/fvtt-micro-modules/-/tree/master/folder-default-type",
	"bugs": "https://gitlab.com/mkahvi/fvtt-micro-modules/-/issues"
}
