{
	"id": "pf1-spell-memory",
	"title": "Spell Memory for Pathfinder 1e",
	"description": "Spell memorization monitor.",

	"version": "0.3.0",
	"authors": [
		{
			"name": "MKAh",
			"url": "https://gitlab.com/mkahvi",
			"discord": "manaflower",
			"ko-fi": "mkahvi"
		}
	],

	"esmodules": ["spell-memory.mjs"],
	"styles": ["spell-memory.css"],

	"compatibility": {
		"minimum": 10,
		"verified": 11
	},

	"relationships": {
		"systems": [{ "id": "pf1" }]
	},

	"license": "https://gitlab.com/mkahvi/fvtt-micro-modules/-/raw/master/pf1-spell-memory/LICENSE",
	"readme": "https://gitlab.com/mkahvi/fvtt-micro-modules/-/raw/master/pf1-spell-memory/README.md",
	"changelog": "https://gitlab.com/mkahvi/fvtt-micro-modules/-/raw/master/pf1-spell-memory/CHANGELOG.md",

	"manifest": "https://gitlab.com/mkahvi/fvtt-micro-modules/-/raw/master/pf1-spell-memory/module.json",
	"download": "https://gitlab.com/mkahvi/fvtt-micro-modules/-/raw/master/pf1-spell-memory/pf1-spell-memory.zip",
	"url": "https://gitlab.com/mkahvi/fvtt-micro-modules/-/tree/master/pf1-spell-memory",
	"bugs": "https://gitlab.com/mkahvi/fvtt-micro-modules/-/issues"
}
